<svg width="20" height="20" viewBox="0 0 20 20" fill="none" xmlns="http://www.w3.org/2000/svg">
<path d="M13 0.0129395H7V6.99994H0V12.9999H7V19.9869H13V12.9999H20V6.99994H13V0.0129395Z" fill="#0B1A2F"/>
</svg>
