<svg width="24" height="24" viewBox="0 0 24 24" fill="none" xmlns="http://www.w3.org/2000/svg">
<path d="M12 17.25C11.8694 17.25 11.7412 17.2159 11.6278 17.1511L5.0625 13.3988C5.00545 13.3658 4.94074 13.3485 4.87486 13.3485C4.80899 13.3485 4.74428 13.3659 4.68726 13.3989C4.63024 13.4319 4.58291 13.4793 4.55003 13.5364C4.51716 13.5935 4.4999 13.6582 4.5 13.7241V17.25C4.49989 17.3839 4.53561 17.5153 4.60344 17.6307C4.67128 17.7461 4.76877 17.8412 4.88578 17.9063L11.6358 21.6563C11.7472 21.7181 11.8725 21.7506 12 21.7506C12.1275 21.7506 12.2528 21.7181 12.3642 21.6563L19.1142 17.9063C19.2312 17.8412 19.3287 17.7461 19.3966 17.6307C19.4644 17.5153 19.5001 17.3839 19.5 17.25V13.7241C19.5001 13.6582 19.4828 13.5935 19.45 13.5364C19.4171 13.4793 19.3698 13.4319 19.3127 13.3989C19.2557 13.3659 19.191 13.3485 19.1251 13.3485C19.0593 13.3485 18.9945 13.3658 18.9375 13.3988L12.3722 17.1511C12.2588 17.2159 12.1306 17.25 12 17.25Z" fill="#0B1A2F"/>
<path d="M23.2464 8.92965V8.92449C23.2343 8.80561 23.1939 8.69134 23.1287 8.59122C23.0634 8.49109 22.9752 8.408 22.8714 8.34887L12.3714 2.34887C12.258 2.28408 12.1297 2.25 11.9992 2.25C11.8686 2.25 11.7404 2.28408 11.627 2.34887L1.12701 8.34887C1.01225 8.41448 0.916876 8.50925 0.85054 8.62359C0.784205 8.73793 0.749268 8.86777 0.749268 8.99996C0.749268 9.13215 0.784205 9.26199 0.85054 9.37633C0.916876 9.49067 1.01225 9.58544 1.12701 9.65105L11.627 15.6511C11.7404 15.7158 11.8686 15.7499 11.9992 15.7499C12.1297 15.7499 12.258 15.7158 12.3714 15.6511L21.6095 10.3725C21.6238 10.3642 21.64 10.3599 21.6565 10.3599C21.673 10.3599 21.6892 10.3643 21.7034 10.3726C21.7177 10.3808 21.7295 10.3927 21.7377 10.407C21.7459 10.4213 21.7502 10.4375 21.7501 10.454V17.2289C21.7501 17.6325 22.0604 17.9789 22.464 17.999C22.5654 18.0039 22.6668 17.9882 22.7619 17.9527C22.8571 17.9173 22.944 17.8629 23.0175 17.7929C23.091 17.7228 23.1495 17.6386 23.1895 17.5453C23.2295 17.4519 23.2501 17.3515 23.2501 17.25V8.99996C23.2501 8.97647 23.2488 8.95301 23.2464 8.92965Z" fill="#0B1A2F"/>
</svg>
