<svg xmlns="http://www.w3.org/2000/svg" width="22" height="16" viewBox="0 0 22 16">
    <g fill="none" fill-rule="evenodd">
        <g fill="#FFF" fill-rule="nonzero">
            <g>
                <path d="M11.02 15.978h-.005c-.663-.004-6.52-.058-8.18-.51-1.16-.313-2.075-1.233-2.387-2.4C.014 11.43.04 8.274.044 8.022c-.003-.25-.03-3.433.402-5.086l.002-.004C.757 1.778 1.693.83 2.833.515L2.84.513c1.641-.434 7.51-.487 8.174-.491h.012c.664.004 6.537.058 8.18.51 1.158.313 2.072 1.231 2.386 2.396.45 1.654.409 4.843.404 5.112.003.265.03 3.393-.402 5.04l-.001.006c-.313 1.166-1.228 2.086-2.39 2.4H19.2c-1.64.434-7.51.487-8.173.492h-.006zm-8.915-12.6c-.382 1.459-.346 4.6-.345 4.632v.023c-.012.871.028 3.394.345 4.59.153.572.605 1.025 1.177 1.18 1.225.333 5.995.438 7.739.45 1.748-.012 6.525-.114 7.74-.434.571-.155 1.021-.607 1.176-1.18.316-1.213.356-3.724.345-4.59v-.027c.015-.881-.015-3.434-.344-4.639V3.38c-.155-.575-.606-1.028-1.179-1.183-1.213-.334-5.99-.438-7.738-.45-1.747.012-6.52.114-7.74.433-.56.157-1.023.626-1.176 1.198zm6.73 8.115V4.507L14.837 8l-6.004 3.493z" transform="translate(-184 -10143) translate(184 10143)"/>
            </g>
        </g>
    </g>
</svg>
