<svg width="1280" height="917" viewBox="0 0 1280 917" fill="none" xmlns="http://www.w3.org/2000/svg">
<path d="M0 617.262C212.5 1130.11 738 848.022 1280 762.036V0H0V617.262Z" fill="url(#paint0_linear)"/>
<defs>
<linearGradient id="paint0_linear" x1="640" y1="-79.4061" x2="640" y2="917" gradientUnits="userSpaceOnUse">
<stop stop-color="#EFEFEF"/>
<stop offset="1" stop-color="#EFEFEF" stop-opacity="0.5"/>
</linearGradient>
</defs>
</svg>
