<svg width="657" height="576" viewBox="0 0 657 576" fill="none" xmlns="http://www.w3.org/2000/svg">
<rect width="658" height="576" fill="url(#paint0_linear)"/>
<defs>
<linearGradient id="paint0_linear" x1="329" y1="0" x2="329" y2="576" gradientUnits="userSpaceOnUse">
<stop stop-color="#EFEFEF"/>
<stop offset="1" stop-color="#EFEFEF" stop-opacity="0"/>
</linearGradient>
</defs>
</svg>
