<svg width="215" height="108" viewBox="0 0 215 108" fill="none" xmlns="http://www.w3.org/2000/svg">
<path d="M215 0.5C215 29.0108 203.674 56.3538 183.514 76.514C163.354 96.6741 136.011 108 107.5 108C78.9892 108 51.6462 96.6741 31.486 76.514C11.3259 56.3538 4.30501e-06 29.0108 0 0.500015L43.0319 0.500008C43.0319 17.598 49.8241 33.9957 61.9142 46.0858C74.0043 58.1759 90.402 64.9681 107.5 64.9681C124.598 64.9681 140.996 58.1759 153.086 46.0858C165.176 33.9957 171.968 17.598 171.968 0.5H215Z" fill="#FFC742" fill-opacity="0.2"/>
</svg>
