<svg xmlns="http://www.w3.org/2000/svg" xmlns:xlink="http://www.w3.org/1999/xlink" width="119" height="39" viewBox="0 0 119 39">
    <defs>
        <path id="bnmax7qisa" d="M0 38L118.514 38 118.514 0.128 0 0.128z"/>
        <path id="gdc2elmexc" d="M19.218.128C8.61.128-.017 8.64 0 19.098v.021c0 .251.006.503.017.755.417 9.77 8.495 17.722 18.411 18.11.244.01.488.016.732.016h.11c5.115-.012 9.922-1.981 13.541-5.547l.724-.713-7.399-7.29-.725.714c-.78.77-1.688 1.38-2.693 1.813-1.107.474-2.284.715-3.5.715-1.991 0-3.883-.651-5.422-1.852l5.422-5.348 3.471 3.42 11.45-11.608.278-.284c.182.05.36.11.557.11 1.185 0 2.147-.946 2.147-2.116 0-1.169-.962-2.116-2.147-2.116-1.187 0-2.148.947-2.148 2.116 0 .213.063.407.123.6l-.48.482-9.802 9.936-3.449-3.398-8.364 8.246.57.56c2.02 1.991 4.721 3.214 7.576 3.27 1.575.03 3.105-.267 4.536-.883.93-.398 1.79-.919 2.567-1.552l4.51 4.443c-3.468 3.042-7.99 4.56-12.718 4.212C9.483 35.314 2.7 28.598 2.096 20.306c-.72-9.887 7.24-18.158 17.122-18.158 4.244 0 8.251 1.505 11.396 4.262l-4.511 4.443c-1.933-1.579-4.342-2.437-6.885-2.437-5.297 0-9.709 3.78-10.624 8.746-.856.405-1.402 1.346-1.165 2.39.176.783.823 1.411 1.621 1.578 1.39.292 2.618-.746 2.618-2.065 0-.758-.406-1.417-1.014-1.791.846-3.924 4.4-6.87 8.637-6.84 2.36.021 4.6 1.03 6.267 2.675l.578.567 7.399-7.288-.516-.507C29.594 2.508 25.049.393 20.214.153c-.332-.017-.665-.025-.995-.025z"/>
        <linearGradient id="s9hbqvognd" x1="0%" x2="100.001%" y1="49.999%" y2="49.999%">
            <stop offset="0%" stop-color="#0685B0"/>
            <stop offset="100%" stop-color="#6B9BB5"/>
        </linearGradient>
    </defs>
    <g fill="none" fill-rule="evenodd">
        <g>
            <g>
                <g transform="translate(-100 -10311) translate(100 10311) translate(0 .434)">
                    <path fill="#58585B" d="M50.407 11.469c-.208-.251-.465-.445-.77-.579-.305-.134-.657-.203-1.056-.203-.4 0-.77.077-1.112.23-.341.152-.635.366-.886.64-.25.274-.445.598-.586.976-.14.377-.211.786-.211 1.226 0 .448.07.86.211 1.232.14.373.334.696.58.969.245.276.534.488.865.641.332.153.689.23 1.07.23.436 0 .823-.091 1.16-.27.336-.181.612-.433.832-.754l1.771 1.306c-.409.565-.927.984-1.553 1.253-.627.27-1.273.404-1.936.404-.755 0-1.45-.116-2.088-.35-.634-.232-1.185-.57-1.648-1.005-.464-.435-.826-.962-1.083-1.581-.26-.621-.39-1.312-.39-2.075 0-.763.13-1.456.39-2.073.257-.621.619-1.149 1.083-1.584.463-.435 1.014-.77 1.648-1.004.638-.233 1.333-.35 2.088-.35.271 0 .556.025.85.075.296.048.588.126.874.236.286.106.559.25.823.43.265.18.502.4.71.66l-1.636 1.32zM59.337 11.766l-1.172 2.962h2.358l-1.186-2.962zm-.818-2.775h1.759l4.198 9.536h-2.398l-.832-2.02h-3.75l-.804 2.02h-2.345L58.52 8.99zM69.48 12.937h1.253c.191 0 .394-.007.608-.02.213-.013.406-.054.58-.12.172-.068.316-.174.428-.318.115-.143.17-.344.17-.606 0-.242-.049-.436-.148-.58-.1-.143-.228-.253-.384-.33-.153-.075-.332-.128-.53-.154-.2-.027-.395-.04-.588-.04h-1.39v2.168zM67.353 8.99h3.736c.49 0 .956.047 1.397.142.44.094.827.251 1.159.47.332.22.594.518.791.89.194.372.292.837.292 1.394 0 .674-.177 1.245-.53 1.717-.356.471-.874.77-1.556.896l2.456 4.028h-2.55l-2.018-3.813h-1.05v3.813h-2.127V8.99zM79.718 10.849L76.963 10.849 76.963 8.991 84.599 8.991 84.599 10.849 81.843 10.849 81.843 18.527 79.718 18.527zM87.665 8.991L94.223 8.991 94.223 10.932 89.792 10.932 89.792 12.707 93.978 12.707 93.978 14.647 89.792 14.647 89.792 16.587 94.469 16.587 94.469 18.527 87.665 18.527zM98.08 8.991L100.971 8.991 105.074 15.618 105.102 15.618 105.102 8.991 107.227 8.991 107.227 18.527 104.448 18.527 100.236 11.738 100.207 11.738 100.207 18.527 98.08 18.527zM110.596 16.587L115.491 10.849 110.773 10.849 110.773 8.991 118.066 8.991 118.066 10.849 113.268 16.587 118.231 16.587 118.231 18.527 110.596 18.527zM72.31 28.597c-.283.146-.577.25-.885.315-.305.064-.619.098-.936.098-.341 0-.654-.054-.94-.159-.286-.103-.534-.254-.742-.45-.208-.196-.371-.433-.486-.712-.117-.28-.176-.59-.176-.935 0-.341.059-.653.176-.93.115-.28.278-.517.486-.712.208-.197.456-.348.742-.453.286-.106.599-.157.94-.157.345 0 .666.04.958.123.294.084.55.226.77.429l-.674.725c-.13-.132-.28-.234-.442-.302-.164-.069-.37-.102-.612-.102-.206 0-.39.033-.556.102-.166.068-.308.164-.426.288-.119.124-.21.269-.274.439-.063.17-.094.352-.094.55 0 .203.031.387.094.556.064.167.155.313.274.435.118.123.26.22.426.289.166.07.35.103.556.103.208 0 .386-.024.538-.07.152-.046.272-.093.362-.143v-.697h-.779v-.872h1.7v2.242zM74.964 26.386h.564c.087 0 .177-.003.273-.01.097-.005.183-.022.26-.054.078-.03.143-.078.193-.143.053-.064.078-.155.078-.272 0-.109-.022-.196-.068-.26-.044-.066-.103-.114-.172-.148-.07-.036-.149-.058-.239-.07-.09-.011-.176-.02-.263-.02h-.626v.977zm-.956-1.777h1.68c.22 0 .43.022.628.064.197.044.373.116.523.213.148.1.267.234.355.4.087.167.131.376.131.626 0 .304-.079.562-.238.772-.16.214-.394.348-.7.404l1.104 1.811h-1.147l-.907-1.712h-.473v1.712h-.956v-4.29zM79.6 26.755c0 .203.032.387.095.554.063.168.155.315.273.436.119.124.26.219.425.288.166.07.352.104.556.104.205 0 .39-.034.555-.104.166-.07.308-.164.427-.288.118-.121.208-.268.271-.436.065-.167.097-.351.097-.554 0-.198-.032-.38-.097-.552-.063-.169-.153-.315-.271-.439-.119-.123-.26-.218-.427-.287-.165-.068-.35-.103-.555-.103-.204 0-.39.035-.556.103-.164.069-.306.164-.425.287-.118.124-.21.27-.273.439-.063.171-.095.354-.095.552m-.993 0c0-.343.059-.654.174-.933.117-.278.28-.516.49-.711.206-.197.454-.347.74-.453.286-.104.598-.156.938-.156.34 0 .653.052.94.156.285.106.531.256.74.453.21.195.37.433.49.711.114.28.173.59.173.933 0 .345-.059.655-.174.934-.118.278-.28.517-.49.712-.208.196-.454.346-.74.45-.286.105-.6.158-.94.158-.339 0-.651-.053-.937-.157-.286-.105-.534-.255-.74-.451-.21-.195-.373-.434-.49-.712-.115-.279-.174-.59-.174-.934M88.462 27.246c0 .254-.038.488-.117.703-.077.214-.193.4-.346.559-.155.156-.344.279-.573.37-.229.088-.493.132-.791.132-.303 0-.57-.044-.797-.133-.23-.09-.42-.213-.574-.37-.154-.159-.27-.344-.347-.558-.077-.215-.117-.45-.117-.703V24.61h.957v2.599c0 .132.022.257.065.37.042.112.102.212.18.293.079.084.172.148.28.193.108.048.225.07.353.07.126 0 .243-.022.349-.07.106-.045.197-.11.276-.193.078-.081.138-.181.182-.294.04-.112.063-.237.063-.37v-2.598h.957v2.635zM91.16 26.429h.638c.085 0 .17-.01.248-.025.08-.016.152-.044.215-.081.063-.04.115-.092.153-.158.038-.067.058-.15.058-.25 0-.11-.025-.199-.077-.266-.05-.066-.117-.117-.196-.154-.08-.036-.169-.06-.267-.07-.098-.008-.19-.015-.28-.015h-.492v1.019zm-.957-1.817h1.614c.224 0 .436.02.636.059.2.04.376.11.525.209.15.098.268.232.356.4.087.168.131.38.131.634 0 .25-.04.46-.123.629-.08.17-.194.307-.336.407-.144.1-.313.172-.508.215-.196.042-.41.064-.64.064h-.698V28.9h-.957v-4.288z"/>
                    <mask id="xn5ob9xvyb" fill="#fff">
                        <use xlink:href="#bnmax7qisa"/>
                    </mask>
                    <path fill="#58585B" d="M43.577 27.149L59.413 27.149 59.413 26.717 43.577 26.717zM102.679 27.149L118.514 27.149 118.514 26.717 102.679 26.717z" mask="url(#xn5ob9xvyb)"/>
                </g>
                <g transform="translate(-100 -10311) translate(100 10311) translate(0 .434)">
                    <mask id="m7scp50gse" fill="#fff">
                        <use xlink:href="#gdc2elmexc"/>
                    </mask>
                    <path fill="url(#s9hbqvognd)" d="M19.218.128C8.61.128-.017 8.64 0 19.098v.021c0 .251.006.503.017.755.417 9.77 8.495 17.722 18.411 18.11.244.01.488.016.732.016h.11c5.115-.012 9.922-1.981 13.541-5.547l.724-.713-7.399-7.29-.725.714c-.78.77-1.688 1.38-2.693 1.813-1.107.474-2.284.715-3.5.715-1.991 0-3.883-.651-5.422-1.852l5.422-5.348 3.471 3.42 11.45-11.608.278-.284c.182.05.36.11.557.11 1.185 0 2.147-.946 2.147-2.116 0-1.169-.962-2.116-2.147-2.116-1.187 0-2.148.947-2.148 2.116 0 .213.063.407.123.6l-.48.482-9.802 9.936-3.449-3.398-8.364 8.246.57.56c2.02 1.991 4.721 3.214 7.576 3.27 1.575.03 3.105-.267 4.536-.883.93-.398 1.79-.919 2.567-1.552l4.51 4.443c-3.468 3.042-7.99 4.56-12.718 4.212C9.483 35.314 2.7 28.598 2.096 20.306c-.72-9.887 7.24-18.158 17.122-18.158 4.244 0 8.251 1.505 11.396 4.262l-4.511 4.443c-1.933-1.579-4.342-2.437-6.885-2.437-5.297 0-9.709 3.78-10.624 8.746-.856.405-1.402 1.346-1.165 2.39.176.783.823 1.411 1.621 1.578 1.39.292 2.618-.746 2.618-2.065 0-.758-.406-1.417-1.014-1.791.846-3.924 4.4-6.87 8.637-6.84 2.36.021 4.6 1.03 6.267 2.675l.578.567 7.399-7.288-.516-.507C29.594 2.508 25.049.393 20.214.153c-.332-.017-.665-.025-.995-.025z" mask="url(#m7scp50gse)"/>
                </g>
            </g>
        </g>
    </g>
</svg>
