<svg xmlns="http://www.w3.org/2000/svg" width="143" height="54" viewBox="0 0 143 54">
    <defs>
        <linearGradient id="m4u0iwdgia" x1="-.282%" x2="99.926%" y1="50.057%" y2="50.057%">
            <stop offset="0%" stop-color="#008DF8"/>
            <stop offset="100%" stop-color="#002F59"/>
        </linearGradient>
    </defs>
    <g fill="none" fill-rule="evenodd">
        <g fill-rule="nonzero">
            <g>
                <g>
                    <path fill="#008DF8" d="M26.668 32.737H53v-5.906c0-.506 0-.928-.084-1.434 0-.169 0-.338-.084-.59 0-.254 0-.507-.084-.845 0-.253-.085-.421-.085-.674 0-.254-.084-.422-.084-.675 0-.254-.084-.507-.168-.675 0-.17-.084-.422-.084-.591 0-.085 0-.169-.084-.253C49.635 9.28 39.119.506 26.584.506 12.03.506.252 12.32.252 26.916S12.03 53.325 26.584 53.325h26.332v-5.99c0-3.291-2.692-5.991-5.973-5.991H26.585c-7.909 0-14.387-6.497-14.387-14.428 0-8.016 6.478-14.428 14.386-14.428 5.889 0 11.02 3.543 13.208 8.69H26.584c-3.197 0-5.805 2.616-5.805 5.822.084 3.206 2.692 5.737 5.89 5.737z" transform="translate(-100 -50) translate(100 49) translate(0 .918)"/>
                    <path fill="url(#m4u0iwdgia)" d="M39.876 21.178c6.73 0 10.095-8.184 5.3-12.91C40.381 3.545 33.903.592 26.668.592v11.897c5.89 0 10.937 3.628 13.208 8.69z" transform="translate(-100 -50) translate(100 49) translate(0 .918)"/>
                </g>
                <g fill="#002F59">
                    <path d="M3.37 3.333H.59C.674 4 1.18 4.5 1.938 4.5c.422 0 .759-.167 1.011-.417l.253.25c-.337.334-.758.5-1.264.5-1.011 0-1.77-.666-1.77-1.666 0-1 .675-1.667 1.602-1.667s1.6.667 1.6 1.667v.166zM.59 3h2.36c-.085-.667-.506-1.083-1.18-1.083-.674 0-1.096.5-1.18 1.083zM4.298.25L4.719.25 4.719 4.917 4.298 4.917zM8.933 3.333H6.152C6.236 4 6.742 4.5 7.5 4.5c.421 0 .758-.167 1.011-.417l.253.25c-.337.334-.758.5-1.264.5-1.011 0-1.77-.666-1.77-1.666 0-1 .674-1.667 1.601-1.667.927 0 1.602.667 1.602 1.667v.166zM6.152 3h2.36c-.085-.667-.506-1.083-1.18-1.083-.675 0-1.18.5-1.18 1.083zM9.522 3.25c0-1 .759-1.667 1.686-1.667.59 0 1.011.25 1.348.667l-.337.25c-.253-.333-.59-.5-1.011-.5-.759 0-1.264.5-1.264 1.25s.505 1.25 1.264 1.25c.421 0 .758-.167 1.011-.5l.337.25c-.253.417-.758.667-1.348.667-1.011 0-1.686-.667-1.686-1.667zM15.253 4.667c-.169.166-.422.25-.674.25-.59 0-1.012-.334-1.012-1v-2h-.59V1.5h.59V.833h.422v.75H15V2h-1.011v2c0 .417.168.583.59.583.168 0 .337-.083.505-.166l.169.25zM17.697 1.583V2h-.085c-.674 0-1.095.417-1.095 1.25v1.667h-.506V1.583h.422v.667c.252-.5.674-.667 1.264-.667zM18.202 3.25c0-1 .759-1.667 1.686-1.667 1.01 0 1.685.667 1.685 1.667s-.758 1.667-1.685 1.667c-1.012 0-1.686-.75-1.686-1.667zm2.865 0c0-.75-.505-1.25-1.264-1.25-.674 0-1.264.5-1.264 1.25s.506 1.25 1.264 1.25c.759 0 1.264-.5 1.264-1.25zM25.534 3v1.917h-.422V3.083c0-.666-.337-1.083-1.01-1.083-.76 0-1.18.417-1.18 1.167v1.75H22.5V1.583h.421v.584c.253-.417.675-.667 1.264-.667.843.083 1.349.5 1.349 1.5zM26.798 1.583L27.219 1.583 27.219 4.917 26.798 4.917zM28.146 3.25c0-1 .758-1.667 1.685-1.667.59 0 1.012.25 1.349.667l-.337.25c-.253-.333-.59-.5-1.012-.5-.758 0-1.264.5-1.264 1.25s.506 1.25 1.264 1.25c.422 0 .759-.167 1.012-.5l.337.25c-.253.417-.759.667-1.349.667-.927 0-1.685-.667-1.685-1.667zM34.803.167c.253 0 .506.083.675.166l-.169.334C35.14.583 34.972.5 34.803.5c-.421 0-.59.25-.59.583V1.5h1.012v.417h-1.012v2.916h-.42V1.917h-.59V1.5h.59v-.417c0-.5.336-.916 1.01-.916zm1.601 1.416h.422v3.334h-.422V1.583zM37.669 4.5l.168-.333c.253.166.759.333 1.18.333.674 0 .927-.25.927-.5 0-.833-2.191-.167-2.191-1.5 0-.5.505-.917 1.348-.917.421 0 .927.084 1.18.334l-.169.333c-.252-.167-.674-.25-1.01-.25-.59 0-.844.25-.844.583 0 .917 2.191.25 2.191 1.5 0 .584-.505.917-1.348.917-.674-.083-1.18-.25-1.432-.5zM40.87 3.25c0-1 .76-1.667 1.686-1.667.59 0 1.011.25 1.348.667l-.337.25c-.252-.333-.59-.5-1.01-.5-.76 0-1.265.5-1.265 1.25s.506 1.25 1.264 1.25c.422 0 .759-.167 1.011-.5l.337.25c-.252.417-.758.667-1.348.667-.927 0-1.685-.667-1.685-1.667zM47.275 2.833v2.084h-.421v-.5c-.169.333-.59.583-1.18.583-.758 0-1.18-.417-1.18-1 0-.5.337-.917 1.264-.917h1.096v-.166c0-.584-.337-.834-.927-.834-.421 0-.843.167-1.096.417l-.168-.333c.337-.25.843-.417 1.348-.417.759-.167 1.264.25 1.264 1.083zm-.421 1.084v-.584h-1.011c-.674 0-.843.25-.843.584 0 .416.337.583.843.583.421.083.842-.167 1.01-.583zM48.539.25L48.961.25 48.961 4.917 48.539 4.917zM54.944.25v4.667h-.422V4.25c-.252.417-.758.667-1.264.667-.927 0-1.685-.667-1.685-1.667s.674-1.667 1.685-1.667c.506 0 1.012.25 1.264.667v-2h.422zm-.422 3c0-.75-.505-1.25-1.264-1.25-.674 0-1.264.5-1.264 1.25S52.5 4.5 53.258 4.5c.675 0 1.264-.5 1.264-1.25zM59.073 3.333h-2.78C56.375 4 56.881 4.5 57.64 4.5c.422 0 .759-.167 1.012-.417l.252.25c-.337.334-.758.5-1.264.5-1.01 0-1.77-.666-1.77-1.666 0-1 .675-1.667 1.602-1.667s1.601.667 1.601 1.667v.166zM56.293 3h2.359c-.085-.667-.506-1.083-1.18-1.083-.59 0-1.096.5-1.18 1.083zM62.781 1.583L61.264 4.917 60.843 4.917 59.326 1.583 59.831 1.583 61.096 4.417 62.36 1.583zM63.455 1.583L63.876 1.583 63.876 4.917 63.455 4.917zM64.803 3.25c0-1 .759-1.667 1.686-1.667.59 0 1.011.25 1.348.667l-.337.25c-.253-.333-.59-.5-1.011-.5-.759 0-1.264.5-1.264 1.25s.505 1.25 1.264 1.25c.421 0 .758-.167 1.011-.5l.337.25c-.253.417-.758.667-1.348.667-1.011 0-1.686-.667-1.686-1.667zM71.545 3.333h-2.781c.084.667.59 1.167 1.348 1.167.422 0 .759-.167 1.012-.417l.252.25c-.337.334-.758.5-1.264.5-1.01 0-1.77-.666-1.77-1.666 0-1 .675-1.667 1.602-1.667s1.6.667 1.6 1.667v.166zM68.764 3h2.36c-.085-.667-.506-1.083-1.18-1.083-.674 0-1.096.5-1.18 1.083zM71.966 4.5l.169-.333c.253.166.758.333 1.18.333.674 0 .927-.25.927-.5 0-.833-2.191-.167-2.191-1.5 0-.5.505-.917 1.348-.917.421 0 .927.084 1.18.334l-.169.333C74.157 2.083 73.736 2 73.4 2c-.59 0-.843.25-.843.583 0 .917 2.191.25 2.191 1.5 0 .584-.505.917-1.348.917-.59-.083-1.18-.25-1.433-.5z" transform="translate(-100 -50) translate(100 49) translate(68 45.918)"/>
                </g>
                <g fill="#002F59">
                    <path d="M26.46 25.116H7.5c.674 3.098 3.37 5.024 7.163 5.024 1.77 0 3.202-.335 4.55-1.089 1.18-.67 2.613-.418 3.54.586l2.107 2.26c-2.36 2.68-5.815 4.02-10.366 4.02-8.68 0-14.325-5.443-14.325-12.81 0-7.451 5.73-12.81 13.398-12.81 7.332 0 13.062 4.94 13.062 12.894-.084.502-.168 1.256-.168 1.925zm-19.129-4.27H19.72c-.506-3.18-2.865-5.19-6.152-5.19-3.286 0-5.73 2.01-6.236 5.19zM39.438 11.135h3.54c1.6 0 2.865 1.256 2.865 2.846v2.68h-6.236v18.837h-4.382c-1.601 0-2.865-1.256-2.865-2.847V16.744h-1.012c-1.6 0-2.865-1.256-2.865-2.846v-2.68h3.877v-1.171c0-5.61 3.455-9.294 9.69-9.294 2.023 0 4.214.42 5.562 1.34l-1.938 5.274c-.758-.586-1.854-.92-2.95-.92-2.106 0-3.286 1.172-3.286 3.6v1.088zM74.747 4.019v31.479h-4.045c-1.6 0-2.865-1.256-2.865-2.847-1.854 2.177-4.466 3.265-7.837 3.265-7.079 0-12.556-5.023-12.556-12.809S52.92 10.297 60 10.297c3.118 0 5.73 1.005 7.5 3.015V1.256h4.382c1.517-.168 2.865 1.172 2.865 2.763zm-7.163 19.004c0-4.27-2.78-6.865-6.404-6.865s-6.405 2.595-6.405 6.865 2.781 6.865 6.405 6.865c3.623.084 6.404-2.511 6.404-6.865z" transform="translate(-100 -50) translate(100 49) translate(68 3.918)"/>
                </g>
            </g>
        </g>
    </g>
</svg>
