<svg xmlns="http://www.w3.org/2000/svg" xmlns:xlink="http://www.w3.org/1999/xlink" width="190" height="48" viewBox="0 0 190 48">
    <defs>
        <path id="tc1xfi8jea" d="M0 48.387L189.992 48.387 189.992 0.677 0 0.677z"/>
        <path id="my89nfjbcc" d="M5.93 8.489c-8.001 9.192-7.887 23.28.232 32.355 8.117 8.833 20.99 9.91 30.268 3.224.695-.718 4.059.595 5.218.595.58 0 .928-.478.928-.955 0-1.193-1.276-4.655-.58-5.373 6.494-9.432 5.684-22.443-2.435-30.683C35.05 3.006 29.111.677 23.16.677c-6.285 0-12.583 2.599-17.23 7.812"/>
        <path id="4udjf0nq0e" d="M5.93 8.489c-8.001 9.192-7.887 23.28.232 32.355 8.117 8.833 20.99 9.91 30.268 3.224.695-.718 4.059.595 5.218.595.58 0 .928-.478.928-.955 0-1.193-1.276-4.655-.58-5.373 6.494-9.432 5.684-22.443-2.435-30.683C35.05 3.006 29.111.677 23.16.677c-6.285 0-12.583 2.599-17.23 7.812z"/>
    </defs>
    <g fill="none" fill-rule="evenodd">
        <g>
            <g>
                <g transform="translate(-100 -31) translate(100 30) translate(0 .671)">
                    <path fill="#000" d="M73.644 24.799c0-2.68-1.624-4.197-3.713-4.197-2.086 0-3.71 1.516-3.71 4.197 0 2.682 1.624 4.196 3.71 4.196 2.089.117 3.713-1.514 3.713-4.196m6.264 0c0 5.595-3.828 9.208-8.7 9.208-2.087 0-3.711-.582-4.872-1.865v7.928h-6.149V15.939h5.8v1.748c1.161-1.398 2.901-2.096 5.22-2.096 4.756.116 8.701 3.613 8.701 9.208M87.796 23.167h7.192c-.347-1.865-1.741-3.03-3.597-3.03-1.97 0-3.247 1.165-3.595 3.03m12.876 3.263h-12.76c.58 1.75 2.088 2.798 4.291 2.798 1.74 0 2.902-.466 4.061-1.514l3.249 3.38c-1.74 1.865-4.177 2.913-7.54 2.913-6.265 0-10.324-3.847-10.324-9.208 0-5.363 4.174-9.092 9.742-9.092 5.221 0 9.513 3.38 9.513 9.208-.115.466-.115 1.049-.232 1.515M102.296 32.143l1.856-4.313c1.624 1.05 4.06 1.632 6.147 1.632 2.09 0 2.786-.466 2.786-1.166 0-2.449-10.44.35-10.44-6.761 0-3.381 3.015-5.946 8.583-5.946 2.437 0 5.22.584 6.96 1.516l-1.856 4.197c-1.74-.932-3.48-1.282-5.104-1.282-2.088 0-2.784.582-2.784 1.282 0 2.447 10.44-.234 10.44 6.878 0 3.263-3.016 5.827-8.7 5.827-3.016 0-6.148-.698-7.888-1.864M126.54 23.167h7.192c-.347-1.865-1.74-3.03-3.596-3.03-1.855 0-3.247 1.165-3.596 3.03m12.992 3.263h-12.877c.583 1.75 2.09 2.798 4.294 2.798 1.74 0 2.9-.466 4.059-1.514l3.248 3.38c-1.74 1.865-4.176 2.913-7.538 2.913-6.267 0-10.326-3.847-10.326-9.208 0-5.363 4.175-9.092 9.744-9.092 5.22 0 9.512 3.38 9.512 9.208 0 .466-.116 1.049-.116 1.515M161.341 23.517v10.142h-6.149v-9.094c0-2.563-1.16-3.613-2.9-3.613-1.971 0-3.48 1.282-3.48 4.197v8.626h-6.264V15.939h5.917v1.982c1.392-1.516 3.363-2.214 5.567-2.214 4.176 0 7.31 2.33 7.31 7.81M163.313 31.56c0-1.515 1.16-2.449 2.552-2.449 1.392 0 2.552.934 2.552 2.449 0 1.514-1.045 2.564-2.552 2.564-1.392-.116-2.552-1.166-2.552-2.564"/>
                    <mask id="tc0wc85zub" fill="#fff">
                        <use xlink:href="#tc1xfi8jea"/>
                    </mask>
                    <path fill="#000" d="M170.388 33.774h4.176V21.768h-4.176v12.006zm-.464-15.62c0-1.281 1.043-2.214 2.552-2.214 1.507 0 2.552.933 2.552 2.215 0 1.282-1.045 2.33-2.552 2.33-1.509 0-2.552-1.048-2.552-2.33zM185.817 27.83c0-1.866-1.044-2.798-2.553-2.798-1.391 0-2.552 1.05-2.552 2.798 0 1.865 1.16 2.915 2.553 2.915 1.508-.118 2.552-1.167 2.552-2.915m-9.28 0c0-3.615 2.9-6.179 6.727-6.179 3.944 0 6.729 2.564 6.729 6.179 0 3.613-2.785 6.294-6.728 6.294-3.829-.117-6.727-2.681-6.727-6.294" mask="url(#tc0wc85zub)"/>
                </g>
                <g>
                    <g transform="translate(-100 -31) translate(100 30) translate(0 .671)">
                        <mask id="4zbs6veugd" fill="#fff">
                            <use xlink:href="#my89nfjbcc"/>
                        </mask>
                        <path fill="#9E1F63" d="M39.561 7.652C30.284-1.899 14.976-1.659 5.93 8.49c-8.001 9.192-7.887 23.281.232 32.355 8.116 8.834 20.99 9.91 30.268 3.223.695-.716 4.059.597 5.218.597.58 0 .928-.478.928-.955 0-1.194-1.276-4.657-.58-5.373 6.494-9.432 5.684-22.445-2.435-30.684" mask="url(#4zbs6veugd)"/>
                    </g>
                    <g transform="translate(-100 -31) translate(100 30) translate(0 .671)">
                        <mask id="al1rg4tl5f" fill="#fff">
                            <use xlink:href="#4udjf0nq0e"/>
                        </mask>
                        <path fill="#D91C5C" d="M.015 11.95S.828 33.084 23.21 23.055c18.902-8.478 23.193 4.06 23.193 4.06v21.251H.015V11.951z" mask="url(#al1rg4tl5f)"/>
                    </g>
                </g>
                <g fill="#FFF">
                    <path d="M14.263 12.232c-2.592.835-4.812 2.266-6.169 4.175-.248.238-.493.477-.865.477-.245 0-.368 0-.616-.239-.494-.357-.617-.955-.245-1.43 1.603-2.267 4.193-4.057 7.278-5.011.493-.12 1.11.12 1.357.596.123.717-.124 1.313-.74 1.432zM34.619 22.49c2.22 0 3.577-2.029 2.96-4.055-1.973-5.725-8.018-9.9-15.545-10.734-.616-.119-3.825-.119-4.565 0-7.401.716-13.57 5.01-15.543 10.734-.742 2.026.74 4.055 2.96 4.055h29.733zM36.84 24.277H2.541c-.988 0-1.85.835-1.85 1.789 0 .955.862 1.79 1.85 1.79H36.84c.987 0 1.85-.835 1.85-1.79 0-.954-.863-1.789-1.85-1.789M19.69.783c1.567 0 2.837 1.228 2.837 2.744 0 1.514-1.27 2.742-2.836 2.742-1.567 0-2.839-1.228-2.839-2.742 0-1.516 1.272-2.744 2.839-2.744" transform="translate(-100 -31) translate(100 30) translate(3 5.671)"/>
                </g>
            </g>
        </g>
    </g>
</svg>
